﻿2021-11-29T18:52:07.9311735+11:00;Thread#1;Info;Reading test run result from Json file "C:\Users\Vidhya\AppData\Local\Temp\ed7f9550-54d5-4c19-81dd-0cdcb60ddb9d".
2021-11-29T18:52:07.9331763+11:00;Thread#1;Info;Successfully read test run result from Json file "C:\Users\Vidhya\AppData\Local\Temp\ed7f9550-54d5-4c19-81dd-0cdcb60ddb9d"
2021-11-29T18:52:07.9331763+11:00;Thread#1;Info;Deserializing test run result
2021-11-29T18:52:08.2651458+11:00;Thread#1;Info;Successfully deserialized test run result
2021-11-29T18:52:08.2651458+11:00;Thread#1;Info;Loading test run result
2021-11-29T18:52:08.2851434+11:00;Thread#1;Info;Successfully loaded test run result
2021-11-29T18:52:08.2921423+11:00;Thread#1;Info;creating 1 report(s)
2021-11-29T18:52:08.2921423+11:00;Thread#1;Info;generate Report using template ReportTemplate.cshtml
2021-11-29T18:52:08.9485519+11:00;Thread#1;Info;Finished generating reports.
========== End of log file ==========
